TERM 1, GPA:2.298571428571429
TERM 2, GPA:2.3673611111111104
TERM 3, GPA:2.3366867469879504
TERM 4, GPA:2.37171875
TERM 5, GPA:2.374964028776979
TERM 6, GPA:2.3698581560283696
TERM 7, GPA:2.3854487179487185
